transcript
# Reading pref.tcl
ls
# .git                        ProjectAssignment_SimpleProcessor.pdf  
# .gitignore                  Project_template.docx                  
# 05-22-2025-notes.txt        Project_timeline.pdf                   
# ControlUnit                 README.md                              
# DATA_FROM_CHAT.odt          enum_crash_course.odt                  
# Datapath                    garbage                                
# Launch_ModelSim.bat         testProcessor.sv                       
# Processor                   transcript                             
# Processor2025_Datapath.pdf                                         
cd Processor
# reading modelsim.ini
do runButtonSync.do
# 
# Get rid of current work lib
# if {[file exists rtl_work]} {
# 	vdel -lib rtl_work -all
# }
# 
# Create work library and map it to 'work'
# vlib rtl_work
# vmap work rtl_work
# Model Technology ModelSim - Intel FPGA Edition vmap 2020.1 Lib Mapping Utility 2020.02 Feb 28 2020
# vmap work rtl_work 
# Modifying modelsim.ini
# 
# Compile Verilog
#     All Verilog files that are part of this design should have
#     their own "vlog" line below.
# vlog -work work +acc "./ButtonSync.sv"
# Model Technology ModelSim - Intel FPGA Edition vlog 2020.1 Compiler 2020.02 Feb 28 2020
# Start time: 09:42:27 on Jun 07,2025
# vlog -reportprogress 300 -work work "+acc" ./ButtonSync.sv 
# -- Compiling module ButtonSync
# -- Compiling module ButtonSync_tb
# 
# Top level modules:
# 	ButtonSync_tb
# End time: 09:42:27 on Jun 07,2025, Elapsed time: 0:00:00
# Errors: 0, Warnings: 0
# 
# 
# Call vsim to invoke simulator
#     Make sure the last item on the line is the name of the
#     testbench module you want to execute.
# vsim -t 1ps -L altera_ver -L lpm_ver -L sgate_ver -L altera_mf_ver -L altera_lnsim_ver -L cycloneive_ver -L rtl_work -L work -voptargs="+acc" -fsmdebug  ButtonSync_tb
# vsim -t 1ps -L altera_ver -L lpm_ver -L sgate_ver -L altera_mf_ver -L altera_lnsim_ver -L cycloneive_ver -L rtl_work -L work -voptargs=""+acc"" -fsmdebug ButtonSync_tb 
# Start time: 09:42:27 on Jun 07,2025
# Loading sv_std.std
# Loading work.ButtonSync_tb
# Loading work.ButtonSync
# WARNING: No extended dataflow license exists
# 
# Source the wave do file
#     This should be the file that sets up the signal window for
#     the module you are testing.
# do ButtonSync_wave.do
# onerror {resume}
# quietly WaveActivateNextPane {} 0
# add wave -noupdate /ButtonSync_tb/Clk
# ** Warning: (vsim-WLF-5000) WLF file currently in use: vsim.wlf
#           File in use by: rod  Hostname: DESKTOP-36B72F5  ProcessID: 8932
#           Attempting to use alternate WLF file "./wlft35zr4c".
# ** Warning: (vsim-WLF-5001) Could not open WLF file: vsim.wlf
#           Using alternate file: ./wlft35zr4c
# add wave -noupdate /ButtonSync_tb/ResetN
# add wave -noupdate /ButtonSync_tb/Bi
# add wave -noupdate /ButtonSync_tb/Bo
# TreeUpdate [SetDefaultTree]
# WaveRestoreCursors {{Cursor 1} {0 ps} 0}
# quietly wave cursor active 0
# configure wave -namecolwidth 150
# configure wave -valuecolwidth 100
# configure wave -justifyvalue left
# configure wave -signalnamewidth 0
# configure wave -snapdistance 10
# configure wave -datasetprefix 0
# configure wave -rowmargin 4
# configure wave -childrowmargin 2
# configure wave -gridoffset 0
# configure wave -gridperiod 1
# configure wave -griddelta 40
# configure wave -timeline 0
# configure wave -timelineunits ps
# update
# WaveRestoreZoom {0 ps} {1 ns}
# 
# Set the window types
# view wave
# .main_pane.wave.interior.cs.body.pw.wf
# view structure
# .main_pane.structure.interior.cs.body.struct
# view signals
# .main_pane.objects.interior.cs.body.tree
# 
# Run the simulation
# run -all
# 0 Bi = 0, Bo = x
# ** Note: $stop    : ./ButtonSync.sv(91)
#    Time: 90 ps  Iteration: 1  Instance: /ButtonSync_tb
# Break in Module ButtonSync_tb at ./ButtonSync.sv line 91
# 
# View the entire wave display
# wave zoomfull
# 0 ps
# 95 ps
# 
# End
do runButtonSync.do
# 
# Get rid of current work lib
# if {[file exists rtl_work]} {
# 	vdel -lib rtl_work -all
# }
# Error 31: Unable to unlink file "C:/Users/rod/Documents/2025_spring_classes/Processor-Project/Processor/rtl_work/_lib.qdb".
# Error 133: Unable to remove directory "C:/Users/rod/Documents/2025_spring_classes/Processor-Project/Processor/rtl_work".
# 
# Create work library and map it to 'work'
# vlib rtl_work
# vmap work rtl_work
# Model Technology ModelSim - Intel FPGA Edition vmap 2020.1 Lib Mapping Utility 2020.02 Feb 28 2020
# vmap work rtl_work 
# Modifying modelsim.ini
# 
# Compile Verilog
#     All Verilog files that are part of this design should have
#     their own "vlog" line below.
# vlog -work work +acc "./ButtonSync.sv"
# Model Technology ModelSim - Intel FPGA Edition vlog 2020.1 Compiler 2020.02 Feb 28 2020
# Start time: 09:43:41 on Jun 07,2025
# vlog -reportprogress 300 -work work "+acc" ./ButtonSync.sv 
# -- Compiling module ButtonSync
# -- Compiling module ButtonSync_tb
# 
# Top level modules:
# 	ButtonSync_tb
# End time: 09:43:41 on Jun 07,2025, Elapsed time: 0:00:00
# Errors: 0, Warnings: 0
# 
# 
# Call vsim to invoke simulator
#     Make sure the last item on the line is the name of the
#     testbench module you want to execute.
# vsim -t 1ps -L altera_ver -L lpm_ver -L sgate_ver -L altera_mf_ver -L altera_lnsim_ver -L cycloneive_ver -L rtl_work -L work -voptargs="+acc" -fsmdebug  ButtonSync_tb
# End time: 09:43:43 on Jun 07,2025, Elapsed time: 0:01:16
# Errors: 0, Warnings: 2
# vsim -t 1ps -L altera_ver -L lpm_ver -L sgate_ver -L altera_mf_ver -L altera_lnsim_ver -L cycloneive_ver -L rtl_work -L work -voptargs=""+acc"" -fsmdebug ButtonSync_tb 
# Start time: 09:43:43 on Jun 07,2025
# Loading sv_std.std
# Loading work.ButtonSync_tb
# Loading work.ButtonSync
# WARNING: No extended dataflow license exists
# 
# Source the wave do file
#     This should be the file that sets up the signal window for
#     the module you are testing.
# do ButtonSync_wave.do
# onerror {resume}
# quietly WaveActivateNextPane {} 0
# add wave -noupdate /ButtonSync_tb/Clk
# ** Warning: (vsim-WLF-5000) WLF file currently in use: vsim.wlf
#           File in use by: rod  Hostname: DESKTOP-36B72F5  ProcessID: 8932
#           Attempting to use alternate WLF file "./wlft7q57xq".
# ** Warning: (vsim-WLF-5001) Could not open WLF file: vsim.wlf
#           Using alternate file: ./wlft7q57xq
# add wave -noupdate /ButtonSync_tb/ResetN
# add wave -noupdate /ButtonSync_tb/Bi
# add wave -noupdate /ButtonSync_tb/Bo
# TreeUpdate [SetDefaultTree]
# WaveRestoreCursors {{Cursor 1} {0 ps} 0}
# quietly wave cursor active 0
# configure wave -namecolwidth 150
# configure wave -valuecolwidth 100
# configure wave -justifyvalue left
# configure wave -signalnamewidth 0
# configure wave -snapdistance 10
# configure wave -datasetprefix 0
# configure wave -rowmargin 4
# configure wave -childrowmargin 2
# configure wave -gridoffset 0
# configure wave -gridperiod 1
# configure wave -griddelta 40
# configure wave -timeline 0
# configure wave -timelineunits ps
# update
# WaveRestoreZoom {0 ps} {1 ns}
# 
# Set the window types
# view wave
# .main_pane.wave.interior.cs.body.pw.wf
# view structure
# .main_pane.structure.interior.cs.body.struct
# view signals
# .main_pane.objects.interior.cs.body.tree
# 
# Run the simulation
# run -all
# 0 Bi = 0, Bo = x
# ** Note: $stop    : ./ButtonSync.sv(92)
#    Time: 90 ps  Iteration: 1  Instance: /ButtonSync_tb
# Break in Module ButtonSync_tb at ./ButtonSync.sv line 92
# 
# View the entire wave display
# wave zoomfull
# 0 ps
# 95 ps
# 
# End
do runButtonSync.do
# 
# Get rid of current work lib
# if {[file exists rtl_work]} {
# 	vdel -lib rtl_work -all
# }
# Error 31: Unable to unlink file "C:/Users/rod/Documents/2025_spring_classes/Processor-Project/Processor/rtl_work/_lib1_0.qpg".
# Error 31: Unable to unlink file "C:/Users/rod/Documents/2025_spring_classes/Processor-Project/Processor/rtl_work/_lib1_0.qtl".
# Error 133: Unable to remove directory "C:/Users/rod/Documents/2025_spring_classes/Processor-Project/Processor/rtl_work".
# 
# Create work library and map it to 'work'
# vlib rtl_work
# vmap work rtl_work
# Model Technology ModelSim - Intel FPGA Edition vmap 2020.1 Lib Mapping Utility 2020.02 Feb 28 2020
# vmap work rtl_work 
# Modifying modelsim.ini
# 
# Compile Verilog
#     All Verilog files that are part of this design should have
#     their own "vlog" line below.
# vlog -work work +acc "./ButtonSync.sv"
# Model Technology ModelSim - Intel FPGA Edition vlog 2020.1 Compiler 2020.02 Feb 28 2020
# Start time: 09:45:32 on Jun 07,2025
# vlog -reportprogress 300 -work work "+acc" ./ButtonSync.sv 
# -- Compiling module ButtonSync
# -- Compiling module ButtonSync_tb
# ** Error: (vlog-13069) ./ButtonSync.sv(94): near "@": syntax error, unexpected '@', expecting ';'.
# End time: 09:45:32 on Jun 07,2025, Elapsed time: 0:00:00
# Errors: 1, Warnings: 0
# ** Error: C:/intelFPGA_lite/20.1/modelsim_ase/win32aloem/vlog failed.
# Error in macro ./runButtonSync.do line 16
# C:/intelFPGA_lite/20.1/modelsim_ase/win32aloem/vlog failed.
#     while executing
# "vlog -work work +acc "./ButtonSync.sv""
do runButtonSync.do
# 
# Get rid of current work lib
# if {[file exists rtl_work]} {
# 	vdel -lib rtl_work -all
# }
# Error 31: Unable to unlink file "C:/Users/rod/Documents/2025_spring_classes/Processor-Project/Processor/rtl_work/_lib1_0.qpg".
# Error 31: Unable to unlink file "C:/Users/rod/Documents/2025_spring_classes/Processor-Project/Processor/rtl_work/_lib1_0.qtl".
# Error 133: Unable to remove directory "C:/Users/rod/Documents/2025_spring_classes/Processor-Project/Processor/rtl_work".
# 
# Create work library and map it to 'work'
# vlib rtl_work
# vmap work rtl_work
# Model Technology ModelSim - Intel FPGA Edition vmap 2020.1 Lib Mapping Utility 2020.02 Feb 28 2020
# vmap work rtl_work 
# Modifying modelsim.ini
# 
# Compile Verilog
#     All Verilog files that are part of this design should have
#     their own "vlog" line below.
# vlog -work work +acc "./ButtonSync.sv"
# Model Technology ModelSim - Intel FPGA Edition vlog 2020.1 Compiler 2020.02 Feb 28 2020
# Start time: 09:45:48 on Jun 07,2025
# vlog -reportprogress 300 -work work "+acc" ./ButtonSync.sv 
# -- Compiling module ButtonSync
# -- Compiling module ButtonSync_tb
# 
# Top level modules:
# 	ButtonSync_tb
# End time: 09:45:48 on Jun 07,2025, Elapsed time: 0:00:00
# Errors: 0, Warnings: 0
# 
# 
# Call vsim to invoke simulator
#     Make sure the last item on the line is the name of the
#     testbench module you want to execute.
# vsim -t 1ps -L altera_ver -L lpm_ver -L sgate_ver -L altera_mf_ver -L altera_lnsim_ver -L cycloneive_ver -L rtl_work -L work -voptargs="+acc" -fsmdebug  ButtonSync_tb
# End time: 09:45:50 on Jun 07,2025, Elapsed time: 0:02:07
# Errors: 1, Warnings: 2
# vsim -t 1ps -L altera_ver -L lpm_ver -L sgate_ver -L altera_mf_ver -L altera_lnsim_ver -L cycloneive_ver -L rtl_work -L work -voptargs=""+acc"" -fsmdebug ButtonSync_tb 
# Start time: 09:45:50 on Jun 07,2025
# Loading sv_std.std
# Loading work.ButtonSync_tb
# Loading work.ButtonSync
# WARNING: No extended dataflow license exists
# 
# Source the wave do file
#     This should be the file that sets up the signal window for
#     the module you are testing.
# do ButtonSync_wave.do
# onerror {resume}
# quietly WaveActivateNextPane {} 0
# add wave -noupdate /ButtonSync_tb/Clk
# ** Warning: (vsim-WLF-5000) WLF file currently in use: vsim.wlf
#           File in use by: rod  Hostname: DESKTOP-36B72F5  ProcessID: 8932
#           Attempting to use alternate WLF file "./wlft10xi6x".
# ** Warning: (vsim-WLF-5001) Could not open WLF file: vsim.wlf
#           Using alternate file: ./wlft10xi6x
# add wave -noupdate /ButtonSync_tb/ResetN
# add wave -noupdate /ButtonSync_tb/Bi
# add wave -noupdate /ButtonSync_tb/Bo
# TreeUpdate [SetDefaultTree]
# WaveRestoreCursors {{Cursor 1} {0 ps} 0}
# quietly wave cursor active 0
# configure wave -namecolwidth 150
# configure wave -valuecolwidth 100
# configure wave -justifyvalue left
# configure wave -signalnamewidth 0
# configure wave -snapdistance 10
# configure wave -datasetprefix 0
# configure wave -rowmargin 4
# configure wave -childrowmargin 2
# configure wave -gridoffset 0
# configure wave -gridperiod 1
# configure wave -griddelta 40
# configure wave -timeline 0
# configure wave -timelineunits ps
# update
# WaveRestoreZoom {0 ps} {1 ns}
# 
# Set the window types
# view wave
# .main_pane.wave.interior.cs.body.pw.wf
# view structure
# .main_pane.structure.interior.cs.body.struct
# view signals
# .main_pane.objects.interior.cs.body.tree
# 
# Run the simulation
# run -all
# 0 Bi = 0, Bo = x
# ** Note: $stop    : ./ButtonSync.sv(96)
#    Time: 130 ps  Iteration: 1  Instance: /ButtonSync_tb
# Break in Module ButtonSync_tb at ./ButtonSync.sv line 96
# 
# View the entire wave display
# wave zoomfull
# 0 ps
# 137 ps
# 
# End
ls
# A.mif               DataPath_old.sv      Processor.qpf      rtl_work             
# A.ver               IR.sv                Processor.qsf      runButtonSync.do     
# ALU.sv              InstMemory.qip       Processor.sv       runMux_8_to_1.do     
# ButtonSync.sv       InstMemory.v         Processor_wave.do  runProcessor.do      
# ButtonSync_wave.do  InstMemory_bb.v      RegAlu.sv          simulation           
# ControlUnit.sv      InstMemory_inst.v    RegisterFile.sv    testProcessor.sv     
# D.mif               KeyFilter.sv         StateDefs.sv       testProcessor_og.sv  
# D.ver               Launch_ModelSim.bat  StateMachine.sv    transcript           
# DataMemory.qip      Mux_2_to_1.sv        db                 vsim.wlf             
# DataMemory.v        Mux_8_to_1.sv        incremental_db     wlft10xi6x           
# DataMemory_bb.v     Mux_8_to_1_wave.do   modelsim.ini       wlft35zr4c           
# DataPath.sv         PC.sv                output_files       wlft7q57xq           
do runMux_8_to_1.do
# 
# Get rid of current work lib
# if {[file exists rtl_work]} {
# 	vdel -lib rtl_work -all
# }
# Error 31: Unable to unlink file "C:/Users/rod/Documents/2025_spring_classes/Processor-Project/Processor/rtl_work/_lib1_0.qpg".
# Error 31: Unable to unlink file "C:/Users/rod/Documents/2025_spring_classes/Processor-Project/Processor/rtl_work/_lib1_0.qtl".
# Error 133: Unable to remove directory "C:/Users/rod/Documents/2025_spring_classes/Processor-Project/Processor/rtl_work".
# 
# Create work library and map it to 'work'
# vlib rtl_work
# vmap work rtl_work
# Model Technology ModelSim - Intel FPGA Edition vmap 2020.1 Lib Mapping Utility 2020.02 Feb 28 2020
# vmap work rtl_work 
# Modifying modelsim.ini
# 
# Compile Verilog
#     All Verilog files that are part of this design should have
#     their own "vlog" line below.
# vlog -work work +acc "./Mux_8_to_1.sv"
# Model Technology ModelSim - Intel FPGA Edition vlog 2020.1 Compiler 2020.02 Feb 28 2020
# Start time: 09:56:30 on Jun 07,2025
# vlog -reportprogress 300 -work work "+acc" ./Mux_8_to_1.sv 
# -- Compiling module Mux_8_to_1
# -- Compiling module Mux_8_to_1_tb
# 
# Top level modules:
# 	Mux_8_to_1_tb
# End time: 09:56:30 on Jun 07,2025, Elapsed time: 0:00:00
# Errors: 0, Warnings: 0
# 
# 
# Call vsim to invoke simulator
#     Make sure the last item on the line is the name of the
#     testbench module you want to execute.
# vsim -t 1ps -L altera_ver -L lpm_ver -L sgate_ver -L altera_mf_ver -L altera_lnsim_ver -L cycloneive_ver -L rtl_work -L work -voptargs="+acc" -fsmdebug  Mux_8_to_1_tb
# End time: 09:56:32 on Jun 07,2025, Elapsed time: 0:10:42
# Errors: 0, Warnings: 2
# vsim -t 1ps -L altera_ver -L lpm_ver -L sgate_ver -L altera_mf_ver -L altera_lnsim_ver -L cycloneive_ver -L rtl_work -L work -voptargs=""+acc"" -fsmdebug Mux_8_to_1_tb 
# Start time: 09:56:32 on Jun 07,2025
# Loading sv_std.std
# Loading work.Mux_8_to_1_tb
# Loading work.Mux_8_to_1
# WARNING: No extended dataflow license exists
# 
# Source the wave do file
#     This should be the file that sets up the signal window for
#     the module you are testing.
# do Mux_8_to_1_wave.do
# onerror {resume}
# quietly WaveActivateNextPane {} 0
# add wave -noupdate /Mux_8_to_1_tb/A
# ** Warning: (vsim-WLF-5000) WLF file currently in use: vsim.wlf
#           File in use by: rod  Hostname: DESKTOP-36B72F5  ProcessID: 8932
#           Attempting to use alternate WLF file "./wlft66j18d".
# ** Warning: (vsim-WLF-5001) Could not open WLF file: vsim.wlf
#           Using alternate file: ./wlft66j18d
# add wave -noupdate /Mux_8_to_1_tb/B
# add wave -noupdate /Mux_8_to_1_tb/C
# add wave -noupdate /Mux_8_to_1_tb/D
# add wave -noupdate /Mux_8_to_1_tb/E
# add wave -noupdate /Mux_8_to_1_tb/F
# add wave -noupdate /Mux_8_to_1_tb/G
# add wave -noupdate /Mux_8_to_1_tb/H
# add wave -noupdate /Mux_8_to_1_tb/SE
# add wave -noupdate /Mux_8_to_1_tb/MO
# TreeUpdate [SetDefaultTree]
# WaveRestoreCursors {{Cursor 1} {0 ps} 0}
# quietly wave cursor active 0
# configure wave -namecolwidth 150
# configure wave -valuecolwidth 100
# configure wave -justifyvalue left
# configure wave -signalnamewidth 0
# configure wave -snapdistance 10
# configure wave -datasetprefix 0
# configure wave -rowmargin 4
# configure wave -childrowmargin 2
# configure wave -gridoffset 0
# configure wave -gridperiod 1
# configure wave -griddelta 40
# configure wave -timeline 0
# configure wave -timelineunits ps
# update
# WaveRestoreZoom {0 ps} {1 ns}
# 
# Set the window types
# view wave
# .main_pane.wave.interior.cs.body.pw.wf
# view structure
# .main_pane.structure.interior.cs.body.struct
# view signals
# .main_pane.objects.interior.cs.body.tree
# 
# Run the simulation
# run -all
# 0000000000000000	0000000000000000	0000000000000000	0000000000000000	0000000000000000	0000000000000000	0000000000000000	0000000000000000	000	0000000000000000
# 0000000000000000	0000000000000000	0000000000000000	0000000000000000	0000000000000000	0000000000000000	0000000000000000	0000000000000000	001	0000000000000000
# 0000000000000000	0000000000000000	0000000000000000	0000000000000000	0000000000000000	0000000000000000	0000000000000000	0000000000000000	010	0000000000000000
# 0000000000000001	0000000000000001	0000000000000001	0000000000000001	0000000000000001	0000000000000001	0000000000000001	0000000000000001	000	0000000000000001
# 0000000000000001	0000000000000001	0000000000000001	0000000000000001	0000000000000001	0000000000000001	0000000000000001	0000000000000001	001	0000000000000001
# 0000000000000001	0000000000000001	0000000000000001	0000000000000001	0000000000000001	0000000000000001	0000000000000001	0000000000000001	010	0000000000000001
# 0000000000000000	0000000000000000	0000000000000000	0000000000000000	0000000000000000	0000000000000000	0001001000010101	0011010100100100	000	0000000000000000
# 1111111111111111	1111111111111111	1111111111111111	1111111111111111	1111111111111111	1111111111111111	1100000010001001	0101111010000001	001	1111111111111111
# 1111111111111111	1111111111111111	1111111111111111	1111111111111111	1111111111111111	1111111111111111	1000010010000100	1101011000001001	010	1111111111111111
# 1111111111111111	1111111111111111	1111111111111111	1111111111111111	1111111111111111	1111111111111111	1011000111110000	0101011001100011	000	1111111111111111
# 0000000000000000	0000000000000000	0000000000000000	0000000000000000	0000000000000000	0000000000000000	0000011010111001	0111101100001101	001	0000000000000000
# 0000000000000000	0000000000000000	0000000000000000	0000000000000000	0000000000000000	0000000000000000	0100011011011111	1001100110001101	010	0000000000000000
# 1111111111111111	1111111111111111	1111111111111111	1111111111111111	1111111111111111	1111111111111111	1011001011000010	1000010001100101	000	1111111111111111
# 1111111111111111	1111111111111111	1111111111111111	1111111111111111	1111111111111111	1111111111111111	1000100100110111	0101001000010010	001	1111111111111111
# 0000000000000000	0000000000000000	0000000000000000	0000000000000000	0000000000000000	0000000000000000	0000000011110011	1110001100000001	010	0000000000000000
# 0000000000000000	0000000000000000	0000000000000000	0000000000000000	0000000000000000	0000000000000000	0000011011010111	1100110100001101	000	0000000000000000
# 0000000000000000	0000000000000000	0000000000000000	0000000000000000	0000000000000000	0000000000000000	0011101100100011	1111000101110110	001	0000000000000000
# 0000000000000000	0000000000000000	0000000000000000	0000000000000000	0000000000000000	0000000000000000	0001111010001101	1100110100111101	010	0000000000000000
# 0000000000000000	0000000000000000	0000000000000000	0000000000000000	0000000000000000	0000000000000000	0111011011010100	0101011111101101	000	0000000000000000
# 0000000000000000	0000000000000000	0000000000000000	0000000000000000	0000000000000000	0000000000000000	0100011000101101	1111011110001100	001	0000000000000000
# 0000000000000000	0000000000000000	0000000000000000	0000000000000000	0000000000000000	0000000000000000	0111110011111101	1110100111111001	010	0000000000000000
# 1111111111111111	1111111111111111	1111111111111111	1111111111111111	1111111111111111	1111111111111111	1110001100110111	0010010011000110	000	1111111111111111
# 1111111111111111	1111111111111111	1111111111111111	1111111111111111	1111111111111111	1111111111111111	1110001011110111	1000010011000101	001	1111111111111111
# 1111111111111111	1111111111111111	1111111111111111	1111111111111111	1111111111111111	1111111111111111	1101010100010011	1101001010101010	010	1111111111111111
# 0000000000000000	0000000000000000	0000000000000000	0000000000000000	0000000000000000	0000000000000000	0111001010101111	1111011111100101	000	0000000000000000
# 1111111111111111	1111111111111111	1111111111111111	1111111111111111	1111111111111111	1111111111111111	1011101111010010	0111001001110111	001	1111111111111111
# 1111111111111111	1111111111111111	1111111111111111	1111111111111111	1111111111111111	1111111111111111	1000100100110010	1101011000010010	010	1111111111111111
# 0000000000000000	0000000000000000	0000000000000000	0000000000000000	0000000000000000	0000000000000000	0100011111101100	1101101110001111	000	0000000000000000
# 0000000000000000	0000000000000000	0000000000000000	0000000000000000	0000000000000000	0000000000000000	0111100100110000	0110100111110010	001	0000000000000000
# 1111111111111111	1111111111111111	1111111111111111	1111111111111111	1111111111111111	1111111111111111	1110011101110110	1001011011001110	010	1111111111111111
# 1111111111111111	1111111111111111	1111111111111111	1111111111111111	1111111111111111	1111111111111111	1111010000000000	0111101011101000	000	1111111111111111
# 1111111111111111	1111111111111111	1111111111111111	1111111111111111	1111111111111111	1111111111111111	1110001011001010	0100111011000101	001	1111111111111111
# 0000000000000000	0000000000000000	0000000000000000	0000000000000000	0000000000000000	0000000000000000	0010111001011000	0100100101011100	010	0000000000000000
# 1111111111111111	1111111111111111	1111111111111111	1111111111111111	1111111111111111	1111111111111111	1101111010001110	0010100010111101	000	1111111111111111
# 1111111111111111	1111111111111111	1111111111111111	1111111111111111	1111111111111111	1111111111111111	1001011010101011	0101100000101101	001	1111111111111111
# 1111111111111111	1111111111111111	1111111111111111	1111111111111111	1111111111111111	1111111111111111	1011001010100111	0010011001100101	010	1111111111111111
# 1111111111111111	1111111111111111	1111111111111111	1111111111111111	1111111111111111	1111111111111111	1011000111101111	0110001001100011	000	1111111111111111
# 0000000000000000	0000000000000000	0000000000000000	0000000000000000	0000000000000000	0000000000000000	0000010101110011	1000011100001010	001	0000000000000000
# 1111111111111111	1111111111111111	1111111111111111	1111111111111111	1111111111111111	1111111111111111	1100000000111011	0010001010000000	010	1111111111111111
# 0000000000000000	0000000000000000	0000000000000000	0000000000000000	0000000000000000	0000000000000000	0001000001100100	0010000100100000	000	0000000000000000
# 0000000000000000	0000000000000000	0000000000000000	0000000000000000	0000000000000000	0000000000000000	0101010101111000	0100010110101010	001	0000000000000000
# 1111111111111111	1111111111111111	1111111111111111	1111111111111111	1111111111111111	1111111111111111	1100111011001100	1100110010011101	010	1111111111111111
# 1111111111111111	1111111111111111	1111111111111111	1111111111111111	1111111111111111	1111111111111111	1100101100100000	0011111010010110	000	1111111111111111
# 1111111111111111	1111111111111111	1111111111111111	1111111111111111	1111111111111111	1111111111111111	1000100110000011	1011100000010011	001	1111111111111111
# 1111111111111111	1111111111111111	1111111111111111	1111111111111111	1111111111111111	1111111111111111	1000011010111100	0011100000001101	010	1111111111111111
# 1111111111111111	1111111111111111	1111111111111111	1111111111111111	1111111111111111	1111111111111111	1010100110100111	1101011001010011	000	1111111111111111
# 0000000000000000	0000000000000000	0000000000000000	0000000000000000	0000000000000000	0000000000000000	0011010110011111	1101110101101011	001	0000000000000000
# 1111111111111111	1111111111111111	1111111111111111	1111111111111111	1111111111111111	1111111111111111	1110101010100110	0010101011010101	010	1111111111111111
# 1111111111111111	1111111111111111	1111111111111111	1111111111111111	1111111111111111	1111111111111111	1000000100010111	0100101000000010	000	1111111111111111
# 1111111111111111	1111111111111111	1111111111111111	1111111111111111	1111111111111111	1111111111111111	1101011101010110	0011111010101110	001	1111111111111111
# 0000000000000000	0000000000000000	0000000000000000	0000000000000000	0000000000000000	0000000000000000	0000111011111111	1110100100011101	010	0000000000000000
# 1111111111111111	1111111111111111	1111111111111111	1111111111111111	1111111111111111	1111111111111111	1110011111000101	0111001011001111	000	1111111111111111
# 0000000000000000	0000000000000000	0000000000000000	0000000000000000	0000000000000000	0000000000000000	0001000110000100	0100100100100011	001	0000000000000000
# 0000000000000000	0000000000000000	0000000000000000	0000000000000000	0000000000000000	0000000000000000	0000010100001001	0110010100001010	010	0000000000000000
# 1111111111111111	1111111111111111	1111111111111111	1111111111111111	1111111111111111	1111111111111111	1110010101110011	0000101011001010	000	1111111111111111
# 1111111111111111	1111111111111111	1111111111111111	1111111111111111	1111111111111111	1111111111111111	1001111000110001	0100110000111100	001	1111111111111111
# ** Note: $stop    : ./Mux_8_to_1.sv(58)
#    Time: 2800 ps  Iteration: 0  Instance: /Mux_8_to_1_tb
# Break in Module Mux_8_to_1_tb at ./Mux_8_to_1.sv line 58
# 
# View the entire wave display
# wave zoomfull
# 0 ps
# 2940 ps
# 
# End
do runMux_8_to_1.do
# 
# Get rid of current work lib
# if {[file exists rtl_work]} {
# 	vdel -lib rtl_work -all
# }
# Error 31: Unable to unlink file "C:/Users/rod/Documents/2025_spring_classes/Processor-Project/Processor/rtl_work/_lib.qdb".
# Error 133: Unable to remove directory "C:/Users/rod/Documents/2025_spring_classes/Processor-Project/Processor/rtl_work".
# 
# Create work library and map it to 'work'
# vlib rtl_work
# vmap work rtl_work
# Model Technology ModelSim - Intel FPGA Edition vmap 2020.1 Lib Mapping Utility 2020.02 Feb 28 2020
# vmap work rtl_work 
# Modifying modelsim.ini
# 
# Compile Verilog
#     All Verilog files that are part of this design should have
#     their own "vlog" line below.
# vlog -work work +acc "./Mux_8_to_1.sv"
# Model Technology ModelSim - Intel FPGA Edition vlog 2020.1 Compiler 2020.02 Feb 28 2020
# Start time: 09:58:30 on Jun 07,2025
# vlog -reportprogress 300 -work work "+acc" ./Mux_8_to_1.sv 
# -- Compiling module Mux_8_to_1
# -- Compiling module Mux_8_to_1_tb
# 
# Top level modules:
# 	Mux_8_to_1_tb
# End time: 09:58:30 on Jun 07,2025, Elapsed time: 0:00:00
# Errors: 0, Warnings: 0
# 
# 
# Call vsim to invoke simulator
#     Make sure the last item on the line is the name of the
#     testbench module you want to execute.
# vsim -t 1ps -L altera_ver -L lpm_ver -L sgate_ver -L altera_mf_ver -L altera_lnsim_ver -L cycloneive_ver -L rtl_work -L work -voptargs="+acc" -fsmdebug  Mux_8_to_1_tb
# End time: 09:58:32 on Jun 07,2025, Elapsed time: 0:02:00
# Errors: 0, Warnings: 2
# vsim -t 1ps -L altera_ver -L lpm_ver -L sgate_ver -L altera_mf_ver -L altera_lnsim_ver -L cycloneive_ver -L rtl_work -L work -voptargs=""+acc"" -fsmdebug Mux_8_to_1_tb 
# Start time: 09:58:32 on Jun 07,2025
# Loading sv_std.std
# Loading work.Mux_8_to_1_tb
# Loading work.Mux_8_to_1
# WARNING: No extended dataflow license exists
# 
# Source the wave do file
#     This should be the file that sets up the signal window for
#     the module you are testing.
# do Mux_8_to_1_wave.do
# onerror {resume}
# quietly WaveActivateNextPane {} 0
# add wave -noupdate /Mux_8_to_1_tb/A
# ** Warning: (vsim-WLF-5000) WLF file currently in use: vsim.wlf
#           File in use by: rod  Hostname: DESKTOP-36B72F5  ProcessID: 8932
#           Attempting to use alternate WLF file "./wlftex4gin".
# ** Warning: (vsim-WLF-5001) Could not open WLF file: vsim.wlf
#           Using alternate file: ./wlftex4gin
# add wave -noupdate /Mux_8_to_1_tb/B
# add wave -noupdate /Mux_8_to_1_tb/C
# add wave -noupdate /Mux_8_to_1_tb/D
# add wave -noupdate /Mux_8_to_1_tb/E
# add wave -noupdate /Mux_8_to_1_tb/F
# add wave -noupdate /Mux_8_to_1_tb/G
# add wave -noupdate /Mux_8_to_1_tb/H
# add wave -noupdate /Mux_8_to_1_tb/SE
# add wave -noupdate /Mux_8_to_1_tb/MO
# TreeUpdate [SetDefaultTree]
# WaveRestoreCursors {{Cursor 1} {0 ps} 0}
# quietly wave cursor active 0
# configure wave -namecolwidth 150
# configure wave -valuecolwidth 100
# configure wave -justifyvalue left
# configure wave -signalnamewidth 0
# configure wave -snapdistance 10
# configure wave -datasetprefix 0
# configure wave -rowmargin 4
# configure wave -childrowmargin 2
# configure wave -gridoffset 0
# configure wave -gridperiod 1
# configure wave -griddelta 40
# configure wave -timeline 0
# configure wave -timelineunits ps
# update
# WaveRestoreZoom {0 ps} {1 ns}
# 
# Set the window types
# view wave
# .main_pane.wave.interior.cs.body.pw.wf
# view structure
# .main_pane.structure.interior.cs.body.struct
# view signals
# .main_pane.objects.interior.cs.body.tree
# 
# Run the simulation
# run -all
# 0000000000000000	0000000000000000	0000000000000000	0000000000000000	0000000000000000	0000000000000000	0000000000000000	0000000000000000	000	0000000000000000
# 0000000000000000	0000000000000000	0000000000000000	0000000000000000	0000000000000000	0000000000000000	0000000000000000	0000000000000000	001	0000000000000000
# 0000000000000000	0000000000000000	0000000000000000	0000000000000000	0000000000000000	0000000000000000	0000000000000000	0000000000000000	010	0000000000000000
# 0000000000000001	0000000000000001	0000000000000001	0000000000000001	0000000000000001	0000000000000001	0000000000000001	0000000000000001	000	0000000000000001
# 0000000000000001	0000000000000001	0000000000000001	0000000000000001	0000000000000001	0000000000000001	0000000000000001	0000000000000001	001	0000000000000001
# 0000000000000001	0000000000000001	0000000000000001	0000000000000001	0000000000000001	0000000000000001	0000000000000001	0000000000000001	010	0000000000000001
